SJ: CE5: Inspectors and Updates
…
Filter the dataset one last time to see which rows still contain information in the resolution summary. These rows will be the focus of this post.

todo <- zRC %>% filter(!is.na(rs))

There are 27,149 rows that still need to be cleaned up.

Code Inspectors

To begin writing new code, let’s find the most common information that remains in the resolution summary.

todo %>% count(rs) %>% arrange(desc(n))

# A tibble: 13,152 × 2
   rs                            n
   <chr>                     <int>
 1 at time of inspection      2111
 2 at the time of inspection  1600
 3 at the time of recheck      388
 4 at time of recheck          242
 5 per inspector james         222
 6 per inspection              211
 7 per inspector walker        192
 8 at time of inspection jn    191
 9 per inspector burton        181
10 at time of reinspection     155
# … with 13,142 more rows
…
This information is separated into a new column and the dataset is again tidied up.

roles <- todo %>% 
  mutate(
    role = str_extract_all(rs, vRoles),
    rs = str_remove_all(rs, vRoles),
    rs = str_squish(rs),
    rs = na_if(rs, "")
  )

roles %>% count(rs) %>% arrange(desc(n))

# A tibble: 13,053 × 2
   rs                            n
   <chr>                     <int>
 1 at time of inspection      2123
 2 at the time of inspection  1608
 3 at the time of recheck      388
 4 at time of recheck          242
 5 james                       223
 6 per inspection              211
 7 walker                      192
 8 at time of inspection jn    191
 9 burton                      182
10 at time of reinspection     155
# … with 13,043 more rows
…
Once again, filter out rows that are now empty and count the most common entries that remain in the resolution summary.

todo2 <- insp %>% 
  filter(!is.na(rs))

todo2 %>% count(rs) %>% arrange(desc(n))

# A tibble: 12,490 × 2
   rs                                        n
   <chr>                                 <int>
 1 at time of inspection                  2441
 2 at the time of inspection              1801
 3 at the time of recheck                  388
 4 at time of recheck                      242
 5 per inspection                          213
 6 at time of reinspection                 157
 7 on                                      104
 8 at the time of inspection stated that    97
 9 pictures provided                        86
10 at the time of the inspection            75
# … with 12,480 more rows
…
status <- todo2 %>% 
  mutate(
    status = str_extract_all(rs, vStatus),
    rs = str_remove_all(rs, vStatus),
    rs = str_squish(rs),
    rs = na_if(rs, "")
  )

stat <- status %>% 
  filter(!is.na(rs))

stat %>% count(rs) %>% arrange(desc(n))

# A tibble: 10,790 × 2
   rs                                                                n
   <chr>                                                         <int>
 1 on                                                              114
 2 and                                                              61
 3 the                                                              61
 4 file                                                             59
 5 if required upon re inspection                                   58
 6 close                                                            57
 7 this sr is cancelled and will be re at a later date due to t…    55
 8 from                                                             54
 9 house                                                            53
10 a notice to property from casual entry                           52
# … with 10,780 more rows
…
td3 <- stat %>% 
  mutate(
    rs = str_remove_all(rs, vIncomplete),
    rs = str_squish(rs),
    rs = na_if(rs, "")
  ) %>% 
  filter(!is.na(rs))

td3 %>% count(rs) %>% arrange(desc(n))

# A tibble: 10,771 × 2
   rs                                                                n
   <chr>                                                         <int>
 1 if required upon re inspection                                   58
 2 this sr is cancelled and will be re at a later date due to t…    55
 3 a notice to property from casual entry                           52
 4 to comply with tire ordinance 5334                               40
 5 violation didn t exist                                           35
 6 uncopperative                                                    32
 7 violation resloved                                               32
 8 notice to correct follow up date                                 30
 9 property for rehab                                               28
10 do not occupy                                                    27
# … with 10,761 more rows
…
