CE4: Extracting resolution codes
…
num <- numbers %>% 
  filter(!is.na(rs) & !is.na(rc))

In the last post I did not work with the resolution code column. Removing rows where this column was NA omitted an additional 14 rows.

The starting dataset is 45,333 rows and seven columns.

Omit Resolution Codes

While perusing the data, I noticed that frequently the only information entered in the resolution summary is the resolution code. To see this, compare the most common resolution codes and summaries.

num %>% count(rcm) %>% arrange(desc(n))

# A tibble: 67 × 2
   rcm                                n
   <chr>                          <int>
 1 comp. v.o. - miscellaneous     11556
 2 case not justified             11446
 3 comp. v.o. - yard cleaned       5369
 4 closed void                     2831
 5 justified, active already file  2339
 6 closed, other                   1970
 7 closed, rehab                   1547
 8 case dismissed                  1412
 9 uncooperative                   1158
10 comp. v.o. bldg. repaired        929
# … with 57 more rows

num %>% count(rs) %>% arrange(desc(n))

# A tibble: 16,085 × 2
   rs                                                             n
   <chr>                                                      <int>
 1 case not justified                                          2811
 2 comp. v.o. - miscellaneous                                  2667
 3 in compliance                                               1384
 4 comp. v.o. - yard cleaned                                   1360
 5 closed void                                                  658
 6 justified, active already file                               652
 7 resolved                                                     480
 8 active npa case                                              450
 9 at the time of inspection the violation has been corrected   440
10 violation has been corrected                                 427
# … with 16,075 more rows
…
newNA <- dupCode %>% 
  filter(is.na(rs)) %>% 
  left_join(num, by = "sr") %>% 
  select(sr, rc.x, rcm.x, rs.x, rs.y)

Removing instances where the resolution summary restated the resolution code or resolution code meaning cleared out the resolution summary of 11,106 rows, 23% of the starting zCE dataset.

The newNA dataset was created to double check my results to make sure I didn’t erroneously clear out any resolution summaries. The dataset takes rows where the new output is NA and joins in the original resolution summary (rs.y). I use the count() function to compact the 11,106 rows to show unique summaries.

newNA %>% count(rs.y) %>% arrange(n)

# A tibble: 51 × 2
   rs.y                    n
   <chr>               <int>
 1 closed void ,           1
 2 cr                      1
 3 cvobd                   1
 4 cvoid - closed void     1
 5 cvoid .                 1
 6 cvoid-                  1
 7 cvoid,                  1
 8 cvoid,closed void       1
 9 ja -                    1
10 ja , # , # & #          1
# … with 41 more rows

Of the 11K+ rows that are now NA, there are only 51 unique resolution summaries, and it appears most of those variations are from punctuation and symbols. Only a snippet of the old resolution summaries are shown here, but I can verify on the back-end that there were no rows with other information that were accidentally removed.

Now let’s see what remains in the 34,486 rows that still contain information in the resolution summary.

todo <- dupCode %>% filter(!is.na(rs))

todo %>% count(rs) %>% arrange(desc(n))

# A tibble: 15,662 × 2
   rs                                                             n
   <chr>                                                      <int>
 1 in compliance                                               1389
 2 resolved                                                     480
 3 active npa case                                              451
 4 at the time of inspection the violation has been corrected   440
 5 violation has been corrected                                 429
 6 not justified at the time of inspection                      371
 7 not justified                                                330
 8 not justified at time of inspection                          228
 9 repairs made at time of inspection                           227
10 per inspector james                                          211
# … with 15,652 more rows
…
dupCode2 <- num %>%
  mutate(
    rs = str_remove(rs, vRC1),
    rs = case_when(
      str_starts(rs, "( )*\\$|\\(") ~ rs,
      str_starts(rs, "^\\W+") ~ str_remove_all(rs, "^\\W+"),
      TRUE ~ rs
    ),
    rs = str_squish(rs),
    rs = na_if(rs, "")
  )

dupCode2 %>% filter(str_detect(rs, "incorrect")) %>% select(rs)

# A tibble: 100 × 1
   rs                                                                 
   <chr>                                                              
 1 insufficent ;elevators working incorrect number no unit listed     
 2 incorrect address given. .                                         
 3 incorrect address on original complaint. .                         
 4 incorrect address                                                  
 5 incorrect address given for complaint.                             
 6 incorrect address. .                                               
 7 incorrect                                                          
 8 reissued for incorrect address.                                    
 9 insufficient incorrect unit number                                 
10 citizen states address provided was incorrect, request will be res…
# … with 90 more rows

It worked! No more partial word matches.

Running the new code converted an additional 163 rows to NA. This is because some rows contained a resolution code different from the one entered in the rc or rcm column.

newNA2 <- dupCode2 %>% 
  filter(is.na(rs)) %>% 
  left_join(num, by = "sr") %>% 
  select(sr, rc.x, rcm.x, rs.y, rs.x)

newNA2 %>% anti_join(newNA, by = "sr")

# A tibble: 163 × 5
        sr rc.x       rcm.x                        rs.y          rs.x 
     <dbl> <chr>      <chr>                        <chr>         <chr>
 1 4523704 npa-active keeps the file open in the … jw-dm         <NA> 
 2 5419850 uc         uncooperative                no one home   <NA> 
 3 5057458 npa-active keeps the file open in the … jw-dm         <NA> 
 4 2948636 npa-active keeps the file open in the … justified, a… <NA> 
 5 5387258 nj         case not justified           uncooperative <NA> 
 6 5330236 vom        v.o. for miscellaneous       cvoid         <NA> 
 7 4523696 shelby     shelby county owned propert… jw-dm         <NA> 
 8 5466094 vom        v.o. for miscellaneous       no one home.  <NA> 
 9 5423480 cvoid      closed void                  uncooperative <NA> 
10 5423738 cvoid      closed void                  uncooperative <NA> 
# … with 153 more rows
…
Let’s see how many new rows are NA, meaning all information has been extracted from the resolution summary.

newNA3 <- dupCode3 %>% 
  filter(is.na(rs)) %>% 
  left_join(num, by = "sr") %>% 
  select(sr, rc.x, rcm.x, rs.y, rs.x)

newNA3 %>% anti_join(newNA2, by = "sr")

# A tibble: 5,815 × 5
        sr rc.x       rcm.x                       rs.y           rs.x 
     <dbl> <chr>      <chr>                       <chr>          <chr>
 1 2731732 npa-active keeps the file open in the… administrativ… <NA> 
 2 2621056 npa-active keeps the file open in the… active npa ca… <NA> 
 3 2677350 npa-active keeps the file open in the… active npa ca… <NA> 
 4 4299426 npa-active keeps the file open in the… active npa ca… <NA> 
 5 2733374 npa-active keeps the file open in the… active npa ca… <NA> 
 6 2620298 npa-active keeps the file open in the… active npa ca… <NA> 
 7 2866626 cr         closed, rehab               rehabilitatio… <NA> 
 8 3749828 npa-active keeps the file open in the… active npa ca… <NA> 
 9 4698796 npa-active keeps the file open in the… active npa ca… <NA> 
10 4903736 cvom       comp. v.o. - miscellaneous  resolved, ten… <NA> 
# … with 5,805 more rows

The custom list of resolution codes converted another 5,815 rows to NA since the last run, bringing our total to 17,081 for this post.

Let’s see the most common information that remains in the resolution summary.

todo3 <- dupCode3 %>% filter(!is.na(rs))

todo3 %>% count(rs) %>% arrange(desc(n))

# A tibble: 14,540 × 2
   rs                             n
   <chr>                      <int>
 1 at time of inspection       1155
 2 at the time of inspection   1110
 3 at the time of recheck       294
 4 at time of inspection.       262
 5 per inspector james          211
 6 per inspection               206
 7 at time of recheck.          205
 8 at time of inspection (jn)   180
 9 per inspector walker         177
10 per inspector burton         171
# … with 14,530 more rows
…
